{
  "EDITOR_STATE": {
    "allProjectFiles": {
      "b2a35890-f379-4f50-9c81-f439d5fc9f5c": {
        "id": "b2a35890-f379-4f50-9c81-f439d5fc9f5c",
        "parent": null,
        "name": "forest-reserve-indunil",
        "type": "DIRECTORY",
        "isDirectory": true,
        "children": [
          "9bc71819-f5ee-41fa-a80e-e56590b1f691"
        ],
        "isRemovable": false,
        "filePath": "forest-reserve-indunil"
      },
      "9bc71819-f5ee-41fa-a80e-e56590b1f691": {
        "id": "9bc71819-f5ee-41fa-a80e-e56590b1f691",
        "parent": "b2a35890-f379-4f50-9c81-f439d5fc9f5c",
        "name": "rekognizerindunil.js",
        "type": "JS_LAMBDA",
        "isDirectory": false,
        "children": [],
        "isRemovable": true,
        "filePath": "forest-reserve-indunil/rekognizerindunil.js",
        "code": "\nconst AWS = require('aws-sdk');\nconst ddb = new AWS.DynamoDB.DocumentClient();\nconst rekog = new AWS.Rekognition();\n//\nexports.handler = function (event, context, callback) {\n    let s3 = event.Records[0].s3;\n    rekog.detectLabels({\n        Image: {\n            S3Object: {\n                Bucket: s3.bucket.name,\n                Name: s3.object.key\n            }\n        },\n        MaxLabels: 1\n    }).promise()\n        .then(data => {\n            console.log(data);\n        if (!data.Labels || data.Labels.length < 1) {\n        callback(null, {});\n        return;\n    }\n    let lbl = data.Labels[0];\n    console.log(lbl.Name)\n    \n        ddb.put({\n        TableName: 'footage-indunil',\n        Item: { 'label': lbl.Name, 'name': s3.object.key }\n    }).promise()\n        .then((data) => {\n                        console.log(data);\n\n            //your logic goes here\n        })\n        .catch((err) => {\n                        console.log(err);\n\n            //handle error\n        });\n            callback(null, {});\n        })\n        .catch(callback);\n    \n\n    //callback(null, {\"message\": \"Successfully executed\"});\n\n\n}",
        "config": {
          "runtime": "nodejs8.10",
          "handler": "handler",
          "timeout": 60,
          "memory": 128,
          "layers": []
        },
        "triggers": [
          {
            "resourceName": "s3testzooindunil",
            "config": {
              "type": "s3:ObjectCreated:*",
              "keyPrefix": "",
              "keySuffix": ""
            }
          }
        ],
        "testCases": {
          "a7d5a27c-4951-4190-b223-6d74dd6cc8ad": {
            "id": "a7d5a27c-4951-4190-b223-6d74dd6cc8ad",
            "name": "Unnamed event",
            "functionId": "9bc71819-f5ee-41fa-a80e-e56590b1f691",
            "event": "{\n    \"key1\": \"value1\",\n    \"key2\": \"value2\",\n    \"key3\": \"value3\"\n}"
          }
        },
        "customSecurityPolicy": {
          "Version": "2012-10-17",
          "Statement": [
            {
              "Effect": "Allow",
              "Resource": "*",
              "Action": [
                "*"
              ]
            }
          ]
        }
      }
    },
    "deletedFiles": [],
    "rootNode": "b2a35890-f379-4f50-9c81-f439d5fc9f5c",
    "openFiles": [
      "9bc71819-f5ee-41fa-a80e-e56590b1f691"
    ],
    "currentFileId": "9bc71819-f5ee-41fa-a80e-e56590b1f691",
    "resources": {
      "s3testzooindunil": {
        "name": "s3testzooindunil",
        "type": "S3",
        "config": {
          "mode": 1,
          "bucket": {
            "region": "us-east-1",
            "name": "testzooindunil"
          }
        }
      },
      "ddbfootageIndunil": {
        "name": "ddbfootageIndunil",
        "type": "DynamoDB",
        "config": {
          "mode": 0,
          "operation": "put",
          "table": {
            "arn": "",
            "name": "footage-indunil",
            "partitionKey": "label",
            "partitionKeyType": "S",
            "hasSortKey": true,
            "sortKey": "name",
            "sortKeyType": "S",
            "payPerRequest": true,
            "mode": 0
          },
          "isGlobalEditMode": false,
          "parameters": {
            "Key": {},
            "Item": {
              "label": "@{lbl.Name}",
              "name": "@{s3.object.key}"
            },
            "ExpressionAttributeValues": {}
          },
          "triggerParams": {},
          "validator": {
            "validatableFields": {},
            "validity": true
          },
          "valid": true
        }
      }
    },
    "customTemplate": {
      "dialect": null,
      "definitions": {}
    },
    "envVariables": [
      {
        "lambdaId": "all",
        "varKey": "SIGMA_AWS_ACC_ID",
        "varValue": null,
        "shouldPersist": false,
        "displayOnly": false,
        "editable": false
      }
    ],
    "packageJSON": {
      "dependencies": {
        "aws-sdk": {
          "name": "aws-sdk",
          "version": "2.564.0",
          "language": "javascript"
        }
      }
    }
  },
  "PROJECT_META": {
    "projectName": "forest-reserve-indunil",
    "projectDescription": "",
    "projectVersion": "1.0.0",
    "projectRegion": "us-east-1",
    "platform": "AWS",
    "platformRegions": {},
    "lastSave": 1573041231815
  },
  "VCS_STATE": {
    "provider": "BitBucket",
    "repo": {
      "name": "forest-reserve-indunil",
      "url": "https://bitbucket.org/Indunil1992/forest-reserve-indunil"
    }
  }
}